2022 Hội Thảo Bồi Dưỡng R
…
Bây giờ chúng ta có thể xoay trục bảng dữ liệu.

library(tidyverse)
df <- janitor::clean_names(df)
df1 <- df %>% 
  pivot_longer(cols = male:female,
             names_to = "gender",
             values_to = "integer") 
df2 <- df1 %>% 
  pivot_longer(cols = tay_ninh:hanoi,
               names_to = "province",
               values_to = "score")

# A tibble: 54 × 4
   gender integer province score
   <chr>    <dbl> <chr>    <dbl>
 1 male         1 tay_ninh     3
 2 male         1 nghe_an     NA
 3 male         1 hanoi       NA
 4 female       0 tay_ninh     3
 5 female       0 nghe_an     NA
 6 female       0 hanoi       NA
 7 male         0 tay_ninh    NA
 8 male         0 nghe_an      2
 9 male         0 hanoi       NA
10 female       1 tay_ninh    NA
# … with 44 more rows
# ℹ Use `print(n = ...)` to see more rows
…
